Lab book: ML outputs (vector), whole genome sequences
…
20

0

1

2

49

[1] 0.921386

Misclassified sequences:

# A tibble: 170 x 4
   childtaxa_name                    accessionversion outcome predict
   <chr>                             <chr>            <fct>   <fct>  
 1 Canada goose coronavirus          NC_046965.1      aves    yangbat
 2 Canada goose coronavirus          MK359255.1       aves    yangbat
 3 Sparrow coronavirus HKU17         NC_016992.1      aves    swine  
 4 Sparrow coronavirus HKU17         JQ065045.1       aves    swine  
 5 Thrush coronavirus HKU12-600      NC_011549.1      aves    human  
 6 Thrush coronavirus HKU12-600      FJ376621.1       aves    human  
 7 Bovine coronavirus isolate Alpaca DQ915164.2       camel   human  
 8 Dromedary camel coronavirus HKU23 MN514967.1       camel   human  
 9 Dromedary camel coronavirus HKU23 MN514966.1       camel   human  
10 Dromedary camel coronavirus HKU23 MN514965.1       camel   human  
# ... with 160 more rows
…
